Code (R)
…
Unfortunately, as there is no common party identifier and the party
names and abbrevations do not match all, many parties cannot be matched.
Thus manually checking is required:

# ignore all small parties
election_ep <- election_ep %>%
  dplyr::filter(vote_share > 0.05)

# show remaining unclassified parties
election_ep %>%
  dplyr::filter(
    is.na(rrp) 
  )

## # A tibble: 2,048 × 11
## # Groups:   country_code, regionname, nuts2, party_abbreviation, party_english
## #   [2,048]
##    country_code regionname   nuts2 party_abbreviation party_english party_native
##    <chr>        <chr>        <chr> <chr>              <chr>         <chr>       
##  1 AUT          Burgenland   AT11  ldm                <NA>          <NA>        
##  2 AUT          Kärnten      AT21  ldm                <NA>          <NA>        
##  3 AUT          Niederöster… AT12  ldm                <NA>          <NA>        
##  4 AUT          Oberösterre… AT31  ldm                <NA>          <NA>        
##  5 AUT          Salzburg     AT32  ldm                <NA>          <NA>        
##  6 AUT          Steiermark   AT22  ldm                <NA>          <NA>        
##  7 AUT          Tirol        AT33  ldm                <NA>          <NA>        
##  8 AUT          Vorarlberg   AT34  ldm                <NA>          <NA>        
##  9 AUT          Wien         AT13  ldm                <NA>          <NA>        
## 10 BEL          Prov. Antwe… BE21  cd&v n-va          CHRISTIAN-DE… CHRISTEN-DE…
## # ℹ 2,038 more rows
## # ℹ 5 more variables: vote_share <dbl>, countryname <chr>, partyname <chr>,
## #   parfam <dbl>, rrp <lgl>
…
ggsave(file = here::here('out/vote-shares-rrp.png'),
       width = 8, height = 4)

Regions with lowest / highest vote shares of nationalist and radical
right parties:

# increasing order of vote shares
election_ep_rrp %>%
  arrange(vote_share)

## # A tibble: 147 × 5
## # Groups:   country_code, regionname [147]
##    country_code regionname            nuts2 vote_share                  geometry
##    <chr>        <chr>                 <chr>      <dbl>        <MULTIPOLYGON [m]>
##  1 ITA          Basilicata            ITF5      0.0501 (((4849351 1992851, 4864…
##  2 BEL          Région de Bruxelles-… BE10      0.0501 (((3918540 3093738, 3919…
##  3 GRC          Κεντρική Μακεδονία    EL52      0.0503 (((5458423 2133421, 5476…
##  4 ESP          Aragón                ES24      0.0512 (((3478445 2251519, 3500…
##  5 ITA          Marche                ITI3      0.0515 (((4542187 2321830, 4577…
##  6 ROU          Vest                  RO42      0.0519 (((5291415 2671163, 5297…
##  7 ROU          Sud - Muntenia        RO31      0.0519 (((5513232 2597496, 5521…
##  8 ROU          Sud-Est               RO22      0.0543 (((5660770 2717354, 5668…
##  9 ROU          Sud-Vest Oltenia      RO41      0.0552 (((5500625 2481499, 5498…
## 10 ROU          Nord-Est              RO21      0.0552 (((5616142 2872864, 5661…
## # ℹ 137 more rows

# decreasing order of vote shares
election_ep_rrp %>%
  arrange(desc(vote_share))

## # A tibble: 147 × 5
## # Groups:   country_code, regionname [147]
##    country_code regionname         nuts2 vote_share                     geometry
##    <chr>        <chr>              <chr>      <dbl>           <MULTIPOLYGON [m]>
##  1 HRV          Abroad votes       HRZZ       0.512                        EMPTY
##  2 CYP          Κύπρος             CY00       0.364 (((6342669 1629618, 6342927…
##  3 AUT          Kärnten            AT21       0.347 (((4522751 2668743, 4555162…
##  4 NLD          Limburg (NL)       NL42       0.293 (((4045945 3096437, 4040360…
##  5 NLD          Flevoland          NL23       0.292 (((4040429 3275634, 4033283…
##  6 NLD          Zuid-Holland       NL33       0.259 (((3961039 3246380, 3965655…
##  7 AUT          Steiermark         AT22       0.248 (((4760797 2734594, 4780029…
##  8 HRV          Jadranska Hrvatska HR03       0.237 (((5014574 2200025, 5023279…
##  9 NLD          Noord-Brabant      NL41       0.229 (((4035672 3191097, 4044823…
## 10 NLD          Zeeland            NL34       0.222 (((3923162 3156164, 3920660…
## # ℹ 137 more rows
…
